<?xml version="1.0" encoding="UTF-8" standalone="no"?>
<svg
   viewBox="0 0 262.00934 262.00934"
   height="262.00934"
   width="262.00934"
   xml:space="preserve"
   id="svg2"
   version="1.1"
   sodipodi:docname="visite-ne.svg"
   inkscape:version="1.2.2 (b0a8486541, 2022-12-01)"
   inkscape:export-filename="visite-ne.png"
   inkscape:export-xdpi="375.19275"
   inkscape:export-ydpi="375.19275"
   xmlns:inkscape="http://www.inkscape.org/namespaces/inkscape"
   xmlns:sodipodi="http://sodipodi.sourceforge.net/DTD/sodipodi-0.dtd"
   xmlns="http://www.w3.org/2000/svg"
   xmlns:svg="http://www.w3.org/2000/svg"
   xmlns:rdf="http://www.w3.org/1999/02/22-rdf-syntax-ns#"
   xmlns:cc="http://creativecommons.org/ns#"
   xmlns:dc="http://purl.org/dc/elements/1.1/"><sodipodi:namedview
     pagecolor="#ffffff"
     bordercolor="#666666"
     borderopacity="1"
     objecttolerance="10"
     gridtolerance="10"
     guidetolerance="10"
     inkscape:pageopacity="1"
     inkscape:pageshadow="2"
     inkscape:window-width="1588"
     inkscape:window-height="882"
     id="namedview73"
     showgrid="false"
     fit-margin-top="0"
     fit-margin-left="0"
     fit-margin-right="0"
     fit-margin-bottom="0"
     inkscape:zoom="1.8541681"
     inkscape:cx="87.101056"
     inkscape:cy="161.52797"
     inkscape:window-x="26"
     inkscape:window-y="23"
     inkscape:window-maximized="0"
     inkscape:current-layer="svg2"
     inkscape:document-rotation="0"
     inkscape:showpageshadow="2"
     inkscape:pagecheckerboard="0"
     inkscape:deskcolor="#d1d1d1" /><metadata
     id="metadata8"><rdf:RDF><cc:Work
         rdf:about=""><dc:format>image/svg+xml</dc:format><dc:type
           rdf:resource="http://purl.org/dc/dcmitype/StillImage" /></cc:Work></rdf:RDF></metadata><defs
     id="defs6" /><rect
     style="fill:#ffffff;stroke:#ffffff;stroke-width:1.16955;stroke-opacity:1"
     id="rect835"
     width="259.87314"
     height="259.42337"
     x="1.1577946"
     y="1.2238146"
     ry="0" /><path
     id="path14"
     style="fill:#d92838;fill-opacity:1;fill-rule:nonzero;stroke:none;stroke-width:0.133333"
     d="m 262.00934,87.336001 h -87.336 V 3.2169e-6 h -87.336 V 87.336001 H 8.9301001e-6 V 174.67187 H 87.33734 v 87.33746 h 87.336 v -87.33746 h 87.336 V 87.336001" /><path
     id="path38"
     style="fill:#231f20;fill-opacity:1;fill-rule:nonzero;stroke:none;stroke-width:0.133333"
     d="m 21.927315,201.3818 h 0.188 c 1.773333,-4.48 5.786667,-8.21333 10.92,-8.21333 9.709333,0 8.869333,10.82667 8.869333,17.64133 v 30.42947 H 28.743315 V 215.383 c 0,-2.42706 0.933333,-8.9612 -3.266667,-8.9612 -2.988,0 -3.549333,3.08134 -3.549333,5.41468 v 29.40279 H 8.7673154 V 194.10181 H 21.927315 v 7.27999" /><path
     id="path40"
     style="fill:#231f20;fill-opacity:1;fill-rule:nonzero;stroke:none;stroke-width:0.133333"
     d="m 70.275314,211.9298 c 0,-3.08 -0.653333,-8.68133 -4.76,-8.68133 -4.014653,0 -4.854653,5.41467 -4.854653,8.40133 v 1.39988 h 9.614653 z m 11.108,9.24134 h -20.816 c 0.09331,3.45306 -0.092,10.91973 4.948,10.91973 3.36,0 4.2,-2.61307 4.2,-5.412 H 80.91666 c -0.56,4.29227 -1.86668,8.2136 -4.293346,11.0136 -2.334654,2.8 -5.788,4.4812 -10.642653,4.4812 -13.34668,0 -18.108013,-11.85573 -18.108013,-23.52399 0,-11.29454 4.106666,-25.48121 17.828013,-25.48121 8.681319,0 16.709319,7.74667 15.962653,22.58801 l -0.28,5.41466" /><g
     id="g8"
     transform="translate(12.065021,105.02192)"><path
       style="fill:#000000"
       d="m 106.09121,154.52323 c -0.95803,-0.98641 -1.25,-10.7001 -1.25,-41.58702 V 72.636209 h -9.87756 c -10.188386,0 -12.725655,-0.933759 -11.955015,-4.399656 0.458861,-2.063692 77.369575,-59.6003443 79.669305,-59.6003443 1.01952,0 6.63528,3.6000003 12.47946,8.0000003 12.85534,9.678599 11.68381,9.70957 11.68381,-0.30887 0,-5.884088 0.10416,-11.2294318 0.10416,-11.2294318 0,0 6.68738,-0.4230454 13.40892,-0.2479335 l 10.98692,0.286235 0.5,19.6825243 0.5,19.682524 14.65849,11.014909 c 20.479,15.388636 20.86394,17.120043 3.80633,17.120043 h -9.96482 v 39.928571 c 0,49.31826 4.07875,43.41082 -29.62752,42.91089 -30.72601,-0.45572 -26.98793,0.52447 -26.98805,0.56093 l -0.2943,-15.98332 11.73261,-3.54932 c 10.85805,-3.28475 15.39219,-7.21845 20.61345,-13.01591 18.53104,-20.57607 -6.84561,-48.701263 -28.62757,-31.72824 -4.60762,3.59037 -4.54154,3.59385 -10.7203,-0.564149 -22.04137,-14.832748 -45.68259,11.942819 -28.53647,32.319829 3.18676,3.78724 3.72537,3.83973 5.49379,0.53541 2.87063,-5.36383 10.361,-6.9652 24.67699,-5.27572 5.37754,0.63463 14.50235,1.20048 20.27735,1.25745 15.82348,0.1561 13.80096,6.70215 -2.50102,8.09476 -16.75096,1.43096 -15.11875,0.0191 -15.80516,13.67106 -0.33419,6.64669 -0.88901,12.36629 -1.23294,12.71021 -1.34936,1.34937 -51.90103,1.36321 -53.21088,0.0146 z m 61.5,-38.5554 c -2.63467,-0.72004 -2.31529,-6.47415 0.5,-9.00829 6.39049,-5.7523 14.76737,-1.54319 13.58288,6.82496 -0.33529,2.36874 -8.67404,3.66153 -14.08288,2.18333 z m -21.42126,-1.78938 c -9.28653,-4.03958 -6.06721,-17.54224 4.18244,-17.54224 9.15288,0 11.4956,14.01009 2.94045,17.58466 -3.97894,1.6625 -3.1927,1.66718 -7.12289,-0.0424 z"
       id="path293" /></g></svg>
