<?xml version="1.0" encoding="UTF-8" standalone="no"?>
<svg
   xmlns:dc="http://purl.org/dc/elements/1.1/"
   xmlns:cc="http://creativecommons.org/ns#"
   xmlns:rdf="http://www.w3.org/1999/02/22-rdf-syntax-ns#"
   xmlns:svg="http://www.w3.org/2000/svg"
   xmlns="http://www.w3.org/2000/svg"
   xmlns:sodipodi="http://sodipodi.sourceforge.net/DTD/sodipodi-0.dtd"
   xmlns:inkscape="http://www.inkscape.org/namespaces/inkscape"
   viewBox="0 0 262.00934 262.00934"
   height="262.00934"
   width="262.00934"
   xml:space="preserve"
   id="svg2"
   version="1.1"
   sodipodi:docname="alarme-ne.svg"
   inkscape:version="1.0.2 (e86c870879, 2021-01-15)"
   inkscape:export-filename="/home/claude/Sauvegarde/Sites/alarmes/transport/static/icons/transports-ne1024.png"
   inkscape:export-xdpi="375.19275"
   inkscape:export-ydpi="375.19275"><sodipodi:namedview
     pagecolor="#ffffff"
     bordercolor="#666666"
     borderopacity="1"
     objecttolerance="10"
     gridtolerance="10"
     guidetolerance="10"
     inkscape:pageopacity="1"
     inkscape:pageshadow="2"
     inkscape:window-width="1588"
     inkscape:window-height="673"
     id="namedview73"
     showgrid="false"
     fit-margin-top="0"
     fit-margin-left="0"
     fit-margin-right="0"
     fit-margin-bottom="0"
     inkscape:zoom="0.99362408"
     inkscape:cx="44.452073"
     inkscape:cy="156.01936"
     inkscape:window-x="26"
     inkscape:window-y="23"
     inkscape:window-maximized="0"
     inkscape:current-layer="svg2"
     inkscape:document-rotation="0" /><metadata
     id="metadata8"><rdf:RDF><cc:Work
         rdf:about=""><dc:format>image/svg+xml</dc:format><dc:type
           rdf:resource="http://purl.org/dc/dcmitype/StillImage" /><dc:title></dc:title></cc:Work></rdf:RDF></metadata><defs
     id="defs6" /><rect
     style="fill:#ffffff;stroke:#d7d7d7;stroke-width:1.20785"
     id="rect835"
     width="269.40784"
     height="266.89899"
     x="-1.3230743"
     y="-0.88960546"
     ry="0" /><path
     id="path14"
     style="fill:#d92838;fill-opacity:1;fill-rule:nonzero;stroke:none;stroke-width:0.133333"
     d="m 262.00934,87.336001 h -87.336 V 3.2169e-6 h -87.336 V 87.336001 H 8.9301001e-6 V 174.67187 H 87.33734 v 87.33746 h 87.336 v -87.33746 h 87.336 V 87.336001" /><g
     transform="matrix(0.01520139,0,0,-0.01520139,96.69001,288.87577)"
     fill="#000000"
     stroke="none"
     id="g10"><path
       d="m 6300,10567 c -94,-51 -162,-113 -196,-179 -41,-79 -54,-196 -30,-283 24,-92 77,-164 162,-220 29,-20 58,-44 63,-53 4,-9 7,-143 5,-297 -4,-231 -7,-282 -19,-294 -10,-10 -55,-19 -133,-27 -466,-46 -798,-133 -1187,-309 -144,-66 -377,-192 -440,-240 -16,-12 -43,-30 -60,-39 -16,-9 -56,-36 -87,-59 -31,-23 -79,-57 -105,-76 -52,-37 -230,-192 -329,-287 -199,-189 -463,-528 -584,-749 -19,-33 -39,-67 -46,-75 -21,-25 -170,-349 -200,-435 -15,-44 -30,-84 -34,-90 -20,-29 -96,-296 -125,-440 -57,-289 -63,-334 -76,-570 -16,-282 1,-566 50,-810 5,-27 17,-88 26,-135 33,-171 136,-496 208,-655 34,-74 140,-289 156,-315 5,-8 33,-55 62,-105 227,-383 545,-737 911,-1014 75,-56 103,-83 103,-99 0,-15 -63,-85 -198,-221 -226,-228 -239,-248 -240,-371 -1,-94 24,-152 89,-209 79,-69 194,-90 299,-54 44,15 85,52 321,285 149,147 277,268 285,268 8,0 57,-19 109,-41 52,-23 181,-70 287,-105 544,-182 1126,-227 1680,-130 211,37 272,51 388,85 125,37 338,112 430,152 50,21 95,39 101,39 7,0 128,-116 270,-258 290,-289 311,-304 430,-310 90,-5 156,21 215,85 58,64 79,114 79,199 0,116 -21,147 -252,374 -109,107 -198,200 -198,205 0,17 13,28 115,105 307,228 580,515 791,830 32,47 70,103 84,125 33,48 190,331 190,341 0,4 24,59 54,123 135,294 239,689 276,1051 25,250 27,314 19,490 -27,604 -182,1164 -448,1624 -28,49 -51,91 -51,94 0,11 -193,290 -258,373 -168,217 -418,464 -631,626 -139,106 -445,303 -469,303 -4,0 -23,11 -42,24 -92,62 -502,228 -685,276 -267,72 -430,100 -740,128 -71,6 -81,10 -92,32 -16,31 -17,535 -2,579 6,17 22,34 39,41 47,20 128,108 163,179 29,60 32,74 31,156 -1,150 -56,249 -183,333 l -56,37 -135,3 c -99,2 -142,-1 -160,-11 z m 423,-2156 c 29,-6 104,-18 167,-27 351,-49 698,-181 1045,-397 284,-177 593,-474 782,-752 231,-339 386,-714 449,-1082 42,-246 54,-460 38,-670 -25,-328 -66,-522 -174,-808 -138,-363 -336,-669 -620,-956 -280,-283 -568,-476 -925,-622 -123,-49 -301,-108 -385,-126 -281,-60 -393,-72 -650,-72 -237,-1 -317,7 -549,52 -701,136 -1343,567 -1755,1178 -31,46 -56,85 -56,88 0,3 -8,17 -19,31 -33,47 -136,254 -175,352 -21,52 -47,117 -58,143 -25,63 -52,155 -73,247 -9,41 -20,93 -25,115 -37,162 -60,384 -60,569 1,108 22,339 38,421 6,28 16,79 22,115 14,71 38,170 68,270 26,88 128,346 151,384 11,17 38,67 61,111 23,44 67,120 99,168 56,89 228,319 259,347 10,9 42,43 72,75 118,127 365,333 494,410 27,17 77,47 110,67 275,167 644,299 954,343 59,8 136,19 172,25 36,6 83,12 105,13 85,6 388,-2 438,-12 z"
       id="path2" /><path
       d="m 6377,7656 c -83,-23 -168,-110 -187,-192 -6,-22 -10,-451 -10,-981 0,-1027 -2,-993 56,-1069 31,-40 105,-80 174,-93 34,-6 281,-9 660,-8 l 605,2 57,28 c 63,31 107,79 138,151 53,124 -12,279 -142,337 l -53,24 -459,-2 c -277,-1 -467,2 -478,8 -17,9 -18,53 -20,812 l -3,802 -22,41 c -25,48 -92,111 -137,129 -50,21 -127,25 -179,11 z"
       id="path4" /><path
       d="m 3910,10394 c -278,-29 -445,-72 -657,-167 -292,-131 -525,-312 -727,-564 -78,-98 -189,-272 -219,-343 -8,-19 -28,-64 -45,-100 -62,-130 -89,-230 -148,-545 -23,-126 -20,-318 7,-470 11,-66 25,-145 30,-175 14,-76 79,-268 126,-370 65,-142 115,-225 214,-355 93,-123 135,-169 152,-162 7,3 19,24 27,48 21,69 164,358 242,492 69,119 234,367 305,457 84,108 283,328 386,426 182,175 327,292 532,430 55,37 113,77 130,88 30,20 96,58 250,143 139,77 333,163 513,229 168,62 420,135 509,149 24,4 45,11 48,16 9,13 -104,146 -207,244 -221,211 -445,343 -758,448 -82,27 -92,29 -255,57 -104,18 -380,32 -455,24 z"
       id="path6" /><path
       d="m 8690,10390 c -328,-28 -628,-130 -900,-308 -59,-39 -185,-136 -210,-161 -9,-9 -42,-41 -75,-71 -80,-74 -197,-210 -192,-224 2,-6 17,-14 33,-18 348,-85 378,-94 644,-196 36,-13 103,-42 150,-64 47,-22 103,-48 125,-58 22,-10 90,-46 150,-80 61,-34 124,-69 140,-78 39,-20 251,-161 335,-223 186,-137 430,-355 565,-505 129,-143 201,-226 226,-264 14,-19 49,-69 80,-110 81,-110 161,-234 243,-378 74,-132 205,-400 225,-464 23,-71 31,-68 128,54 49,62 105,138 124,168 49,75 109,177 109,184 0,3 11,29 24,58 114,247 176,532 176,808 0,96 -25,319 -46,420 -110,508 -440,970 -887,1237 -87,53 -246,133 -262,133 -3,0 -24,9 -48,19 -71,32 -197,69 -297,86 -52,9 -117,21 -144,26 -71,14 -305,19 -416,9 z"
       id="path8" /></g><path
     d="m 56.325383,196.76396 v 27.4718 c 0,0.72231 -0.03037,1.67116 -0.09415,2.83457 -0.07797,1.15783 -0.02217,2.30811 0.136828,3.46709 0.175078,1.14912 0.504549,2.14935 1.004667,2.96582 0.495766,0.83393 1.325323,1.23999 2.521516,1.23999 0.932435,0 1.637227,-0.26513 2.129712,-0.79044 0.500116,-0.53517 0.854737,-1.19288 1.047348,-1.98856 0.191493,-0.79044 0.298773,-1.6197 0.298773,-2.47556 v -2.18005 l 0.09849,-30.5449 h 13.872717 v 31.93484 c 0,5.81344 -1.415077,10.46471 -4.253969,13.93178 -2.855308,3.46273 -7.374115,5.19842 -13.585974,5.19842 -3.975985,0 -7.088481,-0.65746 -9.362662,-1.96666 -2.287308,-1.32526 -4.009908,-3.04353 -5.172169,-5.1251 -1.154603,-2.07829 -1.881287,-4.33058 -2.172403,-6.78421 -0.294422,-2.45807 -0.448734,-4.82741 -0.448734,-7.1443 V 196.76372 H 56.32534"
     style="fill:#231f20;fill-opacity:1;fill-rule:nonzero;stroke:none;stroke-width:1.0944"
     id="path40-3" /><path
     d="m 13.98787,250.56541 c 1.645983,0 3.825619,-0.83902 4.584077,-1.70496 0.758423,-0.87241 1.293019,-1.91099 1.605993,-3.13699 0.299237,-1.22231 0.446589,-2.50279 0.410094,-3.80448 -0.03083,-1.31278 -0.04454,-2.41229 -0.04454,-3.2958 0.216821,-14.35891 0.106992,-27.58 -2.6e-5,-42.33753 H 35.12538 v 45.92506 c 0,6.17799 -2.447517,12.21867 -5.798866,14.89131 -3.346786,2.67909 -9.102954,4.98128 -15.45156,4.98128"
     style="fill:#231f20;fill-opacity:1;fill-rule:nonzero;stroke:none;stroke-width:1.02689"
     id="path34"
     sodipodi:nodetypes="cccccccscc" /><path
     d="m 27.78887,193.52272 c -1.999028,0 -3.706327,-0.71541 -5.119205,-2.15342 -1.403001,-1.43084 -2.104051,-3.17673 -2.104051,-5.24219 0,-2.05468 0.719005,-3.77993 2.191119,-5.16498 1.455069,-1.37787 3.215324,-2.07174 5.277191,-2.07174 0.982014,0 1.894005,0.19658 2.760224,0.59964 0.868912,0.4174 1.640872,0.95329 2.279089,1.63729 0.658886,0.67322 1.16693,1.46224 1.499947,2.35269 0.361724,0.89404 0.543966,1.82668 0.543966,2.8087 0,0.97841 -0.203785,1.90388 -0.578974,2.76291 -0.385085,0.86981 -0.903913,1.64088 -1.577137,2.3177 -0.69477,0.6804 -1.465842,1.21 -2.359884,1.58521 -0.90122,0.37883 -1.830271,0.56821 -2.812285,0.56821"
     style="fill:#231f20;fill-opacity:1;fill-rule:nonzero;stroke:none;stroke-width:0.897631"
     id="path42"
     sodipodi:nodetypes="ccscscccscccc" /></svg>
